5. házi feladat (HF5)
…
#Ez a két oszlop megyeggyezik, ezért az egyiket törlöm.
all.equal(new_attrs$hanyszor_vasaroltak, new_attrs$kulonbozo_vasarlok)

## [1] TRUE

new_attrs$kulonbozo_vasarlok <- NULL

c) Kezeld a hiányzó adatokat! Ha a product_id hiányzik, akkor azt a terméket töröljük ki! A többi hiányzó adatot pedig próbáljuk a rendelkezésre álló adatok alapján okosan kitalálni (imputation). Ehhez először skálázd az attribútumokat, majd használd a mice nevű csomagból a mice és complete függvényeket! Olvasd el, hogy milyen módszerrel próbálja meg kitalálni a mice a hiányzó adatokat!

new_attrs[!is.na(new_attrs$product_id),]

## # A tibble: 49,677 x 8
##    product_id hanyszor_vasaro~ kulonbozo_vevok melyik_nap melyik_ora
##         <int>            <int>           <int>      <int>      <int>
##  1          1             1852             716          1         10
##  2          2               90              78          0         11
##  3          3              277              74          1         11
##  4          4              329             182          0         16
##  5          5               15               6          0         11
##  6          6                8               5          6         10
##  7          7               30              18          1         14
##  8          8              165              82          0          9
##  9          9              156              74          6         13
## 10         10             2572            1268          1         11
## # ... with 49,667 more rows, and 3 more variables: atlagosan_eltelt_nap <dbl>,
## #   atlagosan_hanyadik <dbl>, hanyszor_ujravasarolt <int>
…
